{
  "resolution": "main",
  "tree": {
    "src": "https://raw.githubusercontent.com/DefinitelyTyped/DefinitelyTyped/e0abafb1a6ff652f7ff967120e312d5c1916eaef/bootstrap/bootstrap.d.ts",
    "raw": "github:DefinitelyTyped/DefinitelyTyped/bootstrap/bootstrap.d.ts#e0abafb1a6ff652f7ff967120e312d5c1916eaef",
    "typings": "https://raw.githubusercontent.com/DefinitelyTyped/DefinitelyTyped/e0abafb1a6ff652f7ff967120e312d5c1916eaef/bootstrap/bootstrap.d.ts"
  }
}
